%YAML 1.1
%TAG !u! tag:unity3d.com,2011:
--- !u!114 &11400000
MonoBehaviour:
  m_ObjectHideFlags: 0
  m_PrefabParentObject: {fileID: 0}
  m_PrefabInternal: {fileID: 0}
  m_GameObject: {fileID: 0}
  m_Enabled: 1
  m_EditorHideFlags: 0
  m_Script: {fileID: 11500000, guid: 1cf266c7b5f394a20b046ab56397f6e2, type: 3}
  m_Name: Default Shoes
  m_EditorClassIdentifier: 
  name: Default Shoes
  icon: {fileID: 0}
  isDefaultItem: 1
  equipSlot: 5
  mesh: {fileID: 137691142380516384, guid: 061566131ffb547049b0cbc15ed8a017, type: 2}
  coveredMeshReagion: 
  armorModifier: 0
  damageModifier: 0
